EDA-challenge
…
Create a new variable named diet_strategy that is “frugivore” if fruits make up >50% of the diet, “folivore” if leaves make up >50% of the diet, and “omnivore” if diet data are available, but neither of these is true (i.e., these values are not NA). Then, do boxplots of group size for species with different dietary strategies, omitting the category NA from your plot. Do frugivores live in larger groups than folivores?

?mutate

mutate(d, diet_strategy = 
        ifelse(Fruit >= 50, "frugivore"), 
        ifelse(Leaves >= 50, "folivore"), 
        ifelse(Fruit(na.rm = TRUE) & Leaves(na.rm = TRUE)))

mutate(d, diet_strategy = ifelse(Fruit >= 50, "frugivore",
                          ifelse(Leaves >= 50, "folivore",
                          ifelse(!is.na(Fruit) & !is.na(Leaves), "omnivore", NA))))

# A tibble: 213 × 28
   Scientific_Name             Family       Genus Species Brain_Size_Species_M…¹
   <chr>                       <chr>        <chr> <chr>                    <dbl>
 1 Allenopithecus_nigroviridis Cercopithec… Alle… nigrov…                   58.0
 2 Allocebus_trichotis         Cercopithec… Allo… tricho…                   NA  
 3 Alouatta_belzebul           Atelidae     Alou… belzeb…                   52.8
 4 Alouatta_caraya             Atelidae     Alou… caraya                    52.6
 5 Alouatta_guariba            Atelidae     Alou… guariba                   51.7
 6 Alouatta_palliata           Atelidae     Alou… pallia…                   49.9
 7 Alouatta_pigra              Atelidae     Alou… pigra                     51.1
 8 Alouatta_seniculus          Atelidae     Alou… senicu…                   55.2
 9 Aotus_azarai                Cebidae      Aotus azarai                    20.7
10 Aotus_brumbacki             Cebidae      Aotus brumba…                   NA  
# ℹ 203 more rows
# ℹ abbreviated name: ¹​Brain_Size_Species_Mean
# ℹ 23 more variables: Body_mass_male_mean <dbl>, Body_mass_female_mean <dbl>,
#   MeanGroupSize <dbl>, AdultMales <dbl>, AdultFemale <dbl>,
#   GR_MidRangeLat_dd <dbl>, Precip_Mean_mm <dbl>, Temp_Mean_degC <dbl>,
#   HomeRange_km2 <dbl>, DayLength_km <dbl>, Fruit <dbl>, Leaves <chr>,
#   Fauna <chr>, Canine_Dimorphism <dbl>, Feed <dbl>, Move <dbl>, Rest <dbl>, …
…
d

# A tibble: 213 × 28
   Scientific_Name             Family       Genus Species Brain_Size_Species_M…¹
   <chr>                       <chr>        <chr> <chr>                    <dbl>
 1 Allenopithecus_nigroviridis Cercopithec… Alle… nigrov…                   58.0
 2 Allocebus_trichotis         Cercopithec… Allo… tricho…                   NA  
 3 Alouatta_belzebul           Atelidae     Alou… belzeb…                   52.8
 4 Alouatta_caraya             Atelidae     Alou… caraya                    52.6
 5 Alouatta_guariba            Atelidae     Alou… guariba                   51.7
 6 Alouatta_palliata           Atelidae     Alou… pallia…                   49.9
 7 Alouatta_pigra              Atelidae     Alou… pigra                     51.1
 8 Alouatta_seniculus          Atelidae     Alou… senicu…                   55.2
 9 Aotus_azarai                Cebidae      Aotus azarai                    20.7
10 Aotus_brumbacki             Cebidae      Aotus brumba…                   NA  
# ℹ 203 more rows
# ℹ abbreviated name: ¹​Brain_Size_Species_Mean
# ℹ 23 more variables: Body_mass_male_mean <dbl>, Body_mass_female_mean <dbl>,
#   MeanGroupSize <dbl>, AdultMales <dbl>, AdultFemale <dbl>,
#   GR_MidRangeLat_dd <dbl>, Precip_Mean_mm <dbl>, Temp_Mean_degC <dbl>,
#   HomeRange_km2 <dbl>, DayLength_km <dbl>, Fruit <dbl>, Leaves <chr>,
#   Fauna <chr>, Canine_Dimorphism <dbl>, Feed <dbl>, Move <dbl>, Rest <dbl>, …
…
